Mapping Deprivation in Ireland
…
## Simple feature collection with 18641 features and 11 fields
## geometry type:  MULTIPOLYGON
## dimension:      XY
## bbox:           xmin: -10.66297 ymin: 51.41991 xmax: -5.996287 ymax: 55.44658
## geographic CRS: WGS 84
## # A tibble: 18,641 x 12
##    OBJECTID GUID  county ed_name SA_PUB2011 sa_code  AREA CHANGECODE ESRI_OID
##       <int> <chr> <chr>  <chr>   <chr>      <chr>   <int>      <int>    <int>
##  1        1 4c07~ Cork ~ Aultagh 047014001  A04701~     0          0        1
##  2        2 4c07~ Cork ~ Ballym~ 047034002  A04703~     0          0        2
##  3        3 4c07~ Cork ~ Boulte~ 047056001  A04705~     0          0        3
##  4        4 4c07~ Cork ~ Teadies 047300001  A04730~     0          0        4
##  5        5 4c07~ Galwa~ Letter~ 067162001  A06716~     0          0        5
##  6        6 4c07~ Galwa~ Cushki~ 067078001~ A06707~     0          0        6
##  7        7 4c07~ Mayo   Owenna~ 157041002~ A15704~     0          0        7
##  8        8 4c07~ Galwa~ Conga   067069001  A06706~     0          0        8
##  9        9 4c07~ Mayo   Abhain~ 157128002  A15712~     0          0        9
## 10       10 4c07~ Mayo   Erriff  157077001~ A15707~     0          0       10
## # ... with 18,631 more rows, and 3 more variables: Shape__Are <dbl>,
## #   Shape__Len <dbl>, geometry <MULTIPOLYGON []>
…
