Mapping Deprivation in Ireland using R
…
## Simple feature collection with 18641 features and 13 fields
## geometry type:  MULTIPOLYGON
## dimension:      XY
## bbox:           xmin: -10.66297 ymin: 51.41991 xmax: -5.996287 ymax: 55.44658
## geographic CRS: WGS 84
## # A tibble: 18,641 x 14
##    OBJECTID GUID  nuts2name nuts3name county ed_name SA_PUB2011 sa_code  AREA
##       <int> <chr> <chr>     <chr>     <chr>  <chr>   <chr>      <chr>   <int>
##  1        1 4c07~ Southern  South-We~ Cork ~ Aultagh 047014001  A04701~     0
##  2        2 4c07~ Southern  South-We~ Cork ~ Ballym~ 047034002  A04703~     0
##  3        3 4c07~ Southern  South-We~ Cork ~ Boulte~ 047056001  A04705~     0
##  4        4 4c07~ Southern  South-We~ Cork ~ Teadies 047300001  A04730~     0
##  5        5 4c07~ Northern~ West      Galwa~ Letter~ 067162001  A06716~     0
##  6        6 4c07~ Northern~ West      Galwa~ Cushki~ 067078001~ A06707~     0
##  7        7 4c07~ Northern~ West      Mayo   Owenna~ 157041002~ A15704~     0
##  8        8 4c07~ Northern~ West      Galwa~ Conga   067069001  A06706~     0
##  9        9 4c07~ Northern~ West      Mayo   Abhain~ 157128002  A15712~     0
## 10       10 4c07~ Northern~ West      Mayo   Erriff  157077001~ A15707~     0
## # ... with 18,631 more rows, and 5 more variables: CHANGECODE <int>,
## #   ESRI_OID <int>, Shape__Are <dbl>, Shape__Len <dbl>, geometry <MULTIPOLYGON
## #   []>
…
